{
    "theme": "bootstrap3",
    "iconlib": "fontawesome5",
    "disable_edit_json": true,
    "disable_collapse": true,
    "disable_properties": true,
    "disable_array_reorder": true,
    "disable_array_delete_last_row": true,
    "disable_array_delete_all_rows": true
}
